RISC_V_Final_project/RISC_V_Final_project/dump.vcd
$date
	Sun Nov 19 18:27:16 2023
$end
$version
	Icarus Verilog
$end
$timescale
	1s
$end
$scope module testbench $end
$var reg 1 ! clk $end
$var reg 1 " rst $end
$scope module DUT $end
$var wire 1 ! clk $end
$var wire 1 # prediction_result $end
$var wire 1 " rst $end
$var wire 1 $ prediction $end
$var wire 1 % jumpE $end
$var wire 1 & branchE $end
$var wire 32 ' WriteDataM [31:0] $end
$var wire 2 ( SignExME [1:0] $end
$var wire 2 ) SignExM [1:0] $end
$var wire 3 * Result_SrcW [2:0] $end
$var wire 3 + ResultSrcM [2:0] $end
$var wire 3 , ResultSrcE [2:0] $end
$var wire 1 - RegwriteW $end
$var wire 5 . Reg_Source2 [4:0] $end
$var wire 5 / Reg_Source1 [4:0] $end
$var wire 1 0 RegWriteM $end
$var wire 1 1 RegWriteE $end
$var wire 32 2 Read_data2E [31:0] $end
$var wire 32 3 Read_data1E [31:0] $end
$var wire 32 4 ReadDataW [31:0] $end
$var wire 5 5 RDW [4:0] $end
$var wire 5 6 RDM [4:0] $end
$var wire 5 7 RDE [4:0] $end
$var wire 32 8 PCplus4E [31:0] $end
$var wire 1 9 PC_selectorE $end
$var wire 32 : PC_plusoffsetM [31:0] $end
$var wire 32 ; PC_plusoffsetE [31:0] $end
$var wire 32 < PC_plus4D [31:0] $end
$var wire 32 = PCPlus_offsetW [31:0] $end
$var wire 32 > PCPlus4W [31:0] $end
$var wire 32 ? PCPlus4M [31:0] $end
$var wire 32 @ PCE [31:0] $end
$var wire 32 A PCD [31:0] $end
$var wire 1 B MuxsignM $end
$var wire 1 C MuxsignE $end
$var wire 1 D Memory_selectorM $end
$var wire 1 E Memory_selectorE $end
$var wire 1 F MemWriteM $end
$var wire 1 G MemWriteE $end
$var wire 1 H MUXWDMemwriteM $end
$var wire 1 I MUXWDMemwriteE $end
$var wire 32 J InstructionD [31:0] $end
$var wire 32 K Immediate_valueW [31:0] $end
$var wire 32 L Immediate_valueM [31:0] $end
$var wire 32 M Immediate_valueE [31:0] $end
$var wire 2 N Hazardmux_sel2 [1:0] $end
$var wire 2 O Hazardmux_sel1 [1:0] $end
$var wire 32 P DataW [31:0] $end
$var wire 32 Q AluResultW [31:0] $end
$var wire 1 R ALUsrcE $end
$var wire 4 S ALUcontrolE [3:0] $end
$var wire 32 T ALU_ResultM [31:0] $end
$scope module branch $end
$var wire 1 ! clk $end
$var wire 1 " rst $end
$var wire 1 & branch $end
$var wire 1 9 PCSrC $end
$var parameter 2 U SNT $end
$var parameter 2 V ST $end
$var parameter 2 W WNT $end
$var parameter 2 X WT $end
$var reg 2 Y next_state [1:0] $end
$var reg 1 $ prediction $end
$var reg 2 Z present_state [1:0] $end
$upscope $end
$scope module decode $end
$var wire 1 ! clk $end
$var wire 1 " rst $end
$var wire 1 [ jumpD $end
$var wire 1 \ branchD $end
$var wire 5 ] Write_addrW [4:0] $end
$var wire 1 - Write_EnaW $end
$var wire 32 ^ Write_DataW [31:0] $end
$var wire 2 _ SignExMD [1:0] $end
$var wire 3 ` ResultsrcD [2:0] $end
$var wire 1 a RegwriteD $end
$var wire 32 b Read_data2D [31:0] $end
$var wire 32 c Read_data1D [31:0] $end
$var wire 32 d PCplus4D [31:0] $end
$var wire 1 9 PCSrcE $end
$var wire 32 e PCD [31:0] $end
$var wire 1 f MuxsignD $end
$var wire 1 g MemwriteD $end
$var wire 1 h Memory_selector $end
$var wire 1 i MUXWDMemwriteD $end
$var wire 32 j InstructionD [31:0] $end
$var wire 32 k Instruction [31:0] $end
$var wire 32 l Immediate_valueD [31:0] $end
$var wire 3 m ImmSrcD [2:0] $end
$var wire 1 n ALUsrcD $end
$var wire 3 o ALUop [2:0] $end
$var wire 4 p ALUcontrolD [3:0] $end
$var reg 4 q ALUcontrolE [3:0] $end
$var reg 1 R ALUsrcE $end
$var reg 32 r Immediate_valueE [31:0] $end
$var reg 1 I MUXWDMemwriteE $end
$var reg 1 E Memory_selectorE $end
$var reg 1 G MemwriteE $end
$var reg 1 C MuxsignE $end
$var reg 32 s PCE [31:0] $end
$var reg 32 t PCplus4E [31:0] $end
$var reg 5 u RDE [4:0] $end
$var reg 32 v Read_data1E [31:0] $end
$var reg 32 w Read_data2E [31:0] $end
$var reg 5 x Reg_Source1 [4:0] $end
$var reg 5 y Reg_Source2 [4:0] $end
$var reg 1 1 RegwriteE $end
$var reg 3 z ResultsrcE [2:0] $end
$var reg 2 { SignExME [1:0] $end
$var reg 1 & branchE $end
$var reg 1 % jumpE $end
$scope module A1 $end
$var wire 3 | funct3 [2:0] $end
$var wire 1 } funct76 $end
$var wire 1 ~ opcode5 $end
$var wire 3 !" ALUop [2:0] $end
$var wire 4 "" ALUcontrol [3:0] $end
$upscope $end
$scope module M1 $end
$var wire 3 #" funct3 [2:0] $end
$var wire 7 $" opcode [6:0] $end
$var wire 1 [ jump $end
$var wire 1 \ branch $end
$var wire 2 %" SignEXM [1:0] $end
$var wire 3 &" Resultsrc [2:0] $end
$var wire 1 a Regwrite $end
$var wire 1 f MuxsignD $end
$var wire 1 g Memwrite $end
$var wire 1 h Memory_selector $end
$var wire 1 i MUXWDMemwrite $end
$var wire 3 '" ImmSrc [2:0] $end
$var wire 1 n ALUsrc $end
$var wire 3 (" ALUop [2:0] $end
$upscope $end
$scope module R1 $end
$var wire 5 )" Read_addr1 [4:0] $end
$var wire 5 *" Read_addr2 [4:0] $end
$var wire 1 ! clk $end
$var wire 1 " rst $end
$var wire 32 +" Write_data [31:0] $end
$var wire 5 ," Write_addr [4:0] $end
$var wire 1 - Write_Ena $end
$var wire 32 -" Read_data2 [31:0] $end
$var wire 32 ." Read_data1 [31:0] $end
$upscope $end
$scope module S1 $end
$var wire 3 /" ImmSrc [2:0] $end
$var wire 32 0" Instruction [31:0] $end
$var wire 32 1" Immediate_value [31:0] $end
$upscope $end
$upscope $end
$scope module execute $end
$var wire 4 2" ALUControlE [3:0] $end
$var wire 1 R ALUSrcE $end
$var wire 32 3" AluResultM [31:0] $end
$var wire 1 & BranchE $end
$var wire 32 4" Imm_Ext_E [31:0] $end
$var wire 1 I MUXWDMemwriteE $end
$var wire 1 G MemWriteE $end
$var wire 1 E Memory_selectorE $end
$var wire 1 C MuxsignE $end
$var wire 32 5" PCE [31:0] $end
$var wire 32 6" PCPlus4E [31:0] $end
$var wire 1 9 PCSrcE $end
$var wire 32 7" RD1_E [31:0] $end
$var wire 32 8" RD2_E [31:0] $end
$var wire 5 9" RD_E [4:0] $end
$var wire 1 1 RegWriteE $end
$var wire 3 :" ResultSrcE [2:0] $end
$var wire 2 ;" SignExME [1:0] $end
$var wire 1 ! clk $end
$var wire 1 % jumpE $end
$var wire 1 <" midjump $end
$var wire 1 =" midjump_bge $end
$var wire 1 >" midjump_bgeu $end
$var wire 1 ?" midjump_blt $end
$var wire 1 @" midjump_bltu $end
$var wire 1 A" midjump_not_equal $end
$var wire 1 " rst $end
$var wire 32 B" result_hazardmux2 [31:0] $end
$var wire 32 C" result_hazardmux1 [31:0] $end
$var wire 1 D" ZeroE $end
$var wire 32 E" Src_B [31:0] $end
$var wire 32 F" Result_writeback [31:0] $end
$var wire 32 G" ResultE [31:0] $end
$var wire 32 H" PCTargetE [31:0] $end
$var wire 1 I" Overflow_E $end
$var wire 1 J" Negative_E $end
$var wire 1 K" Less_Unsigned_E $end
$var wire 1 L" Less_E $end
$var wire 2 M" Hazardmux_sel2 [1:0] $end
$var wire 2 N" Hazardmux_sel1 [1:0] $end
$var wire 1 O" Greater_Unsigned_E $end
$var wire 1 P" Greater_E $end
$var wire 1 Q" Equal_E $end
$var wire 1 R" Carry_E $end
$var reg 32 S" ALU_ResultM [31:0] $end
$var reg 32 T" Immediate_valueM [31:0] $end
$var reg 1 H MUXWDMemwriteM $end
$var reg 1 F MemWriteM $end
$var reg 1 D Memory_selectorM $end
$var reg 1 B MuxsignM $end
$var reg 32 U" PCPlus4M [31:0] $end
$var reg 32 V" PCPlus_offsetM [31:0] $end
$var reg 5 W" RD_M [4:0] $end
$var reg 1 0 RegWriteM $end
$var reg 3 X" ResultSrcM [2:0] $end
$var reg 32 Y" Result_writebacknew [31:0] $end
$var reg 2 Z" SignExM [1:0] $end
$var reg 32 [" WriteDataM [31:0] $end
$scope module ALU $end
$var wire 4 \" ALU_CTRL [3:0] $end
$var wire 1 D" Zero $end
$var wire 32 ]" In2_signed [31:0] $end
$var wire 32 ^" In2 [31:0] $end
$var wire 32 _" In1_signed [31:0] $end
$var wire 32 `" In1 [31:0] $end
$var reg 1 R" Carry $end
$var reg 1 Q" Equal $end
$var reg 1 P" Greater $end
$var reg 1 O" Greater_Unsigned $end
$var reg 1 L" Less $end
$var reg 1 K" Less_Unsigned $end
$var reg 1 J" Negative $end
$var reg 32 a" Out [31:0] $end
$var reg 1 I" Overflow $end
$var reg 32 b" ShiftLeft [31:0] $end
$var reg 32 c" ShiftRight [31:0] $end
$var reg 32 d" ShiftRighta [31:0] $end
$var reg 32 e" Sum [31:0] $end
$upscope $end
$scope module alu_src_mux $end
$var wire 32 f" I1 [31:0] $end
$var wire 1 R s $end
$var wire 32 g" out [31:0] $end
$var wire 32 h" I0 [31:0] $end
$upscope $end
$scope module branch_adder $end
$var wire 32 i" a [31:0] $end
$var wire 32 j" b [31:0] $end
$var wire 32 k" out [31:0] $end
$upscope $end
$scope module hazardmux1 $end
$var wire 32 l" I0 [31:0] $end
$var wire 32 m" I1 [31:0] $end
$var wire 32 n" I3 [31:0] $end
$var wire 2 o" s [1:0] $end
$var wire 32 p" out [31:0] $end
$var wire 32 q" I2 [31:0] $end
$upscope $end
$scope module hazardmux2 $end
$var wire 32 r" I0 [31:0] $end
$var wire 32 s" I1 [31:0] $end
$var wire 32 t" I3 [31:0] $end
$var wire 2 u" s [1:0] $end
$var wire 32 v" out [31:0] $end
$var wire 32 w" I2 [31:0] $end
$upscope $end
$upscope $end
$scope module fetch $end
$var wire 1 9 PC_Sel $end
$var wire 32 x" PC_branch [31:0] $end
$var wire 1 ! clk $end
$var wire 1 " rst $end
$var wire 32 y" PC_mux_out [31:0] $end
$var wire 32 z" PC_counter_out [31:0] $end
$var wire 32 {" PCPlus4F [31:0] $end
$var wire 32 |" Instruction [31:0] $end
$var wire 32 }" InstrF [31:0] $end
$var reg 32 ~" InstrD [31:0] $end
$var reg 32 !# PCD [31:0] $end
$var reg 32 "# PCNextD [31:0] $end
$scope module IMEM $end
$var wire 1 " rst $end
$var wire 32 ## Data [31:0] $end
$var wire 32 $# Address [31:0] $end
$upscope $end
$scope module PC_MUX $end
$var wire 32 %# I1 [31:0] $end
$var wire 1 9 s $end
$var wire 32 &# out [31:0] $end
$var wire 32 '# I0 [31:0] $end
$upscope $end
$scope module Program_Counter $end
$var wire 32 (# PC_Next [31:0] $end
$var wire 1 ! clk $end
$var wire 1 " rst $end
$var reg 32 )# PC [31:0] $end
$upscope $end
$scope module add_module $end
$var wire 32 *# a [31:0] $end
$var wire 32 +# b [31:0] $end
$var wire 32 ,# out [31:0] $end
$upscope $end
$upscope $end
$scope module hazard $end
$var wire 5 -# RD_M [4:0] $end
$var wire 1 0 RegWriteM $end
$var wire 5 .# Reg_Source1 [4:0] $end
$var wire 5 /# Reg_Source2 [4:0] $end
$var wire 1 ! clk $end
$var wire 1 " rst $end
$var wire 1 - RegWriteW $end
$var wire 5 0# RD_W [4:0] $end
$var wire 2 1# Hazardmux_sel2 [1:0] $end
$var wire 2 2# Hazardmux_sel1 [1:0] $end
$var reg 5 3# RD_Wnew [4:0] $end
$var reg 1 4# RegWriteWnew $end
$upscope $end
$scope module memory $end
$var wire 32 5# AluResultM [31:0] $end
$var wire 32 6# Immediate_valueM [31:0] $end
$var wire 1 D Memory_selectorM $end
$var wire 1 F MemwriteM $end
$var wire 1 H Mux_WD_memwriteM $end
$var wire 1 B MuxsignM $end
$var wire 32 7# PCPlus4M [31:0] $end
$var wire 32 8# PCPlus_offsetM [31:0] $end
$var wire 5 9# RDM [4:0] $end
$var wire 1 0 RegwriteM $end
$var wire 3 :# Result_SrcM [2:0] $end
$var wire 2 ;# SignEXM [1:0] $end
$var wire 32 <# Writedata_M [31:0] $end
$var wire 1 ! clk $end
$var wire 1 " rst $end
$var wire 1 =# out_1_demux $end
$var wire 1 ># out_0_demux $end
$var wire 32 ?# Write_data_Sign2 [31:0] $end
$var wire 32 @# Write_data_Sign1 [31:0] $end
$var wire 32 A# Write_data_Muxout [31:0] $end
$var wire 32 B# ReadDatawire [31:0] $end
$var wire 32 C# Data_mem [31:0] $end
$var reg 32 D# AluResultW [31:0] $end
$var reg 32 E# Immediate_valueW [31:0] $end
$var reg 32 F# PCPlus4W [31:0] $end
$var reg 32 G# PCPlus_offsetW [31:0] $end
$var reg 5 H# RDW [4:0] $end
$var reg 32 I# ReadDataW [31:0] $end
$var reg 1 - RegwriteW $end
$var reg 3 J# Result_SrcW [2:0] $end
$scope module M1 $end
$var wire 32 K# Address [31:0] $end
$var wire 1 ! clk $end
$var wire 1 " rst $end
$var wire 1 =# Ena $end
$var wire 32 L# Data_in [31:0] $end
$var reg 32 M# Data_out [31:0] $end
$upscope $end
$scope module Mux1 $end
$var wire 32 N# I0 [31:0] $end
$var wire 1 H s $end
$var wire 32 O# out [31:0] $end
$var wire 32 P# I1 [31:0] $end
$upscope $end
$scope module Mux2 $end
$var wire 32 Q# I0 [31:0] $end
$var wire 1 B s $end
$var wire 32 R# out [31:0] $end
$var wire 32 S# I1 [31:0] $end
$upscope $end
$scope module de_mux $end
$var wire 1 F In $end
$var wire 1 D sel $end
$var wire 1 =# out2 $end
$var wire 1 ># out1 $end
$upscope $end
$scope module mem $end
$var wire 1 ># Write_Ena $end
$var wire 32 T# Write_addr [31:0] $end
$var wire 32 U# Write_data [31:0] $end
$var wire 1 ! clk $end
$var wire 1 " rst $end
$var reg 2 V# Write_Addr_MM [1:0] $end
$upscope $end
$scope module s1 $end
$var wire 2 W# SignEXM [1:0] $end
$var wire 32 X# data_from_execute [31:0] $end
$var wire 32 Y# output_data [31:0] $end
$upscope $end
$scope module s2 $end
$var wire 2 Z# SignEXM [1:0] $end
$var wire 32 [# data_from_execute [31:0] $end
$var wire 32 \# output_data [31:0] $end
$upscope $end
$upscope $end
$scope module writeback $end
$var wire 32 ]# AluResultW [31:0] $end
$var wire 32 ^# Immediate_valueW [31:0] $end
$var wire 32 _# PCPlus4W [31:0] $end
$var wire 32 `# PCPlus_offsetW [31:0] $end
$var wire 32 a# ReadDataW [31:0] $end
$var wire 3 b# Result_SrcW [2:0] $end
$var wire 32 c# Result_writeback [31:0] $end
$scope module Mux_writeback $end
$var wire 32 d# I0 [31:0] $end
$var wire 32 e# I1 [31:0] $end
$var wire 32 f# I2 [31:0] $end
$var wire 32 g# I3 [31:0] $end
$var wire 32 h# I4 [31:0] $end
$var wire 3 i# s [2:0] $end
$var wire 32 j# out [31:0] $end
$upscope $end
$upscope $end
$upscope $end
$upscope $end
$enddefinitions $end
$comment Show the parameter values. $end
$dumpall
b10 X
b1 W
b11 V
b0 U
$end
#0
$dumpvars
b0 j#
b0 i#
b0 h#
b0 g#
b0 f#
b0 e#
b0 d#
b0 c#
b0 b#
b0 a#
b0 `#
b0 _#
b0 ^#
b0 ]#
b0 \#
b0 [#
b0 Z#
b0 Y#
b0 X#
b0 W#
bx V#
b0 U#
b0 T#
b0 S#
b0 R#
b0 Q#
b0 P#
b0 O#
b0 N#
b0 M#
b0 L#
b0 K#
b0 J#
b0 I#
b0 H#
b0 G#
b0 F#
b0 E#
b0 D#
b0 C#
b0 B#
b0 A#
b0 @#
b0 ?#
0>#
0=#
b0 <#
b0 ;#
b0 :#
b0 9#
b0 8#
b0 7#
b0 6#
b0 5#
04#
b0 3#
b0 2#
b0 1#
b0 0#
b0 /#
b0 .#
b0 -#
bx ,#
b100 +#
bx *#
bx )#
bx (#
bx '#
bx &#
b0 %#
bx $#
b0 ##
b0 "#
b0 !#
b0 ~"
b0 }"
b0 |"
bx {"
bx z"
bx y"
b0 x"
b0 w"
b0 v"
b0 u"
b0 t"
b0 s"
b0 r"
b0 q"
b0 p"
b0 o"
b0 n"
b0 m"
b0 l"
b0 k"
b0 j"
b0 i"
b0 h"
b0 g"
b0 f"
b0 e"
b0 d"
b0 c"
b0 b"
b0 a"
b0 `"
b0 _"
b0 ^"
b0 ]"
b0 \"
b0 ["
b0 Z"
b0 Y"
b0 X"
b0 W"
b0 V"
b0 U"
b0 T"
b0 S"
0R"
0Q"
0P"
0O"
b0 N"
b0 M"
0L"
0K"
0J"
0I"
b0 H"
b0 G"
b0 F"
b0 E"
1D"
b0 C"
b0 B"
0A"
0@"
0?"
0>"
0="
0<"
b0 ;"
b0 :"
b0 9"
b0 8"
b0 7"
b0 6"
b0 5"
b0 4"
b0 3"
b0 2"
b0 1"
b0 0"
b0 /"
b0 ."
b0 -"
b0 ,"
b0 +"
b0 *"
b0 )"
b0 ("
b0 '"
b0 &"
b0 %"
b0 $"
b0 #"
b0 ""
b0 !"
0~
0}
b0 |
b0 {
b0 z
b0 y
b0 x
b0 w
b0 v
b0 u
b0 t
b0 s
b0 r
b0 q
b0 p
b0 o
0n
b0 m
b0 l
b0 k
b0 j
0i
1h
0g
0f
b0 e
b0 d
b0 c
b0 b
0a
b0 `
b0 _
b0 ^
b0 ]
0\
0[
b0 Z
b0 Y
b0 T
b0 S
0R
b0 Q
b0 P
b0 O
b0 N
b0 M
b0 L
b0 K
b0 J
0I
0H
0G
0F
0E
0D
0C
0B
b0 A
b0 @
b0 ?
b0 >
b0 =
b0 <
b0 ;
b0 :
09
b0 8
b0 7
b0 6
b0 5
b0 4
b0 3
b0 2
01
00
b0 /
b0 .
0-
b0 ,
b0 +
b0 *
b0 )
b0 (
b0 '
0&
0%
0$
1#
1"
0!
$end
#5
b100000010000010000011 |"
b100000010000010000011 }"
b100000010000010000011 ##
b100 y"
b100 &#
b100 (#
b100 {"
b100 '#
b100 ,#
b0 z"
b0 $#
b0 )#
b0 *#
0"
1!
#10
0!
#15
b110 p
b110 ""
b1 l
b1 1"
1a
b101 m
b101 '"
b101 /"
1n
b11 o
b11 !"
b11 ("
b10 `
b10 &"
0f
bx b
bx -"
b1000000010000100000011 |"
b11 $"
b10 #"
b10 |
b1 *"
b1000000010000100000011 }"
b1000000010000100000011 ##
b100000010000010000011 k
b100000010000010000011 0"
b1000 y"
b1000 &#
b1000 (#
b100 <
b100 d
b100 "#
b100000010000010000011 J
b100000010000010000011 j
b100000010000010000011 ~"
1E
b1000 {"
b1000 '#
b1000 ,#
b100 z"
b100 $#
b100 )#
b100 *#
1!
#20
0!
#25
b10 l
b10 1"
0D"
b1 G"
b1 a"
b1 e"
b1100000010000110000011 |"
b1 E"
b1 ]"
b1 ^"
b1 g"
b10 *"
b1100000010000110000011 }"
b1100000010000110000011 ##
bx B"
bx h"
bx v"
b1000000010000100000011 k
b1000000010000100000011 0"
b1100 y"
b1100 &#
b1100 (#
1D
b1 .
b1 y
b1 /#
b1 7
b1 u
b1 9"
b110 S
b110 q
b110 2"
b110 \"
b10 ,
b10 z
b10 :"
11
1R
b100 8
b100 t
b100 6"
bx 2
bx w
bx 8"
bx r"
b1 ;
b1 H"
b1 k"
b1 x"
b1 %#
b1 M
b1 r
b1 4"
b1 f"
b1 j"
b1000 <
b1000 d
b1000 "#
b100 A
b100 e
b100 !#
b1000000010000100000011 J
b1000000010000100000011 j
b1000000010000100000011 ~"
b1100 {"
b1100 '#
b1100 ,#
b1000 z"
b1000 $#
b1000 )#
b1000 *#
1!
#30
0!
#35
b10 ?#
b10 S#
b10 \#
b10 B#
b10 R#
b10 C#
b10 M#
b10 Q#
b10 [#
b11 l
b11 1"
b10000000010001000000011 |"
b11 *"
b10 G"
b10 a"
b10 e"
bx @#
bx P#
bx Y#
b10000000010001000000011 }"
b10000000010001000000011 ##
b1100000010000110000011 k
b1100000010000110000011 0"
b10 E"
b10 ]"
b10 ^"
b10 g"
bx A#
bx L#
bx O#
bx U#
b10000 y"
b10000 &#
b10000 (#
b1100 <
b1100 d
b1100 "#
b1000 A
b1000 e
b1000 !#
b1100000010000110000011 J
b1100000010000110000011 j
b1100000010000110000011 ~"
b10 .
b10 y
b10 /#
b10 7
b10 u
b10 9"
b1000 8
b1000 t
b1000 6"
b100 @
b100 s
b100 5"
b100 i"
b110 ;
b110 H"
b110 k"
b110 x"
b110 %#
b10 M
b10 r
b10 4"
b10 f"
b10 j"
b1 L
b1 T"
b1 6#
b1 :
b1 V"
b1 8#
b1 T
b1 3"
b1 S"
b1 m"
b1 s"
b1 5#
b1 K#
b1 T#
bx '
bx ["
bx <#
bx N#
bx X#
b100 ?
b100 U"
b100 7#
b1 6
b1 W"
b1 -#
b1 9#
b10 +
b10 X"
b10 :#
10
b10000 {"
b10000 '#
b10000 ,#
b1100 z"
b1100 $#
b1100 )#
b1100 *#
1!
#40
0!
#45
b11 ?#
b11 S#
b11 \#
b11 B#
b11 R#
b11 C#
b11 M#
b11 Q#
b11 [#
b100 l
b100 1"
b100000010001010000011 |"
b10 P
b10 ^
b10 +"
b10 F"
b10 q"
b10 w"
b10 c#
b10 j#
b11 G"
b11 a"
b11 e"
b100 *"
b100000010001010000011 }"
b100000010001010000011 ##
b11 E"
b11 ]"
b11 ^"
b11 g"
b10000000010001000000011 k
b10000000010001000000011 0"
b10100 y"
b10100 &#
b10100 (#
1-
b10 *
b10 J#
b10 b#
b10 i#
b1 5
b1 ]
b1 ,"
b1 0#
b1 H#
b1 K
b1 E#
b1 ^#
b1 f#
b100 >
b100 F#
b100 _#
b100 h#
b10 4
b10 I#
b10 a#
b10 e#
b1 Q
b1 D#
b1 ]#
b1 d#
b10 L
b10 T"
b10 6#
b110 :
b110 V"
b110 8#
b10 T
b10 3"
b10 S"
b10 m"
b10 s"
b10 5#
b10 K#
b10 T#
b1000 ?
b1000 U"
b1000 7#
b10 6
b10 W"
b10 -#
b10 9#
b11 .
b11 y
b11 /#
b11 7
b11 u
b11 9"
b1100 8
b1100 t
b1100 6"
b1000 @
b1000 s
b1000 5"
b1000 i"
b1011 ;
b1011 H"
b1011 k"
b1011 x"
b1011 %#
b11 M
b11 r
b11 4"
b11 f"
b11 j"
b10000 <
b10000 d
b10000 "#
b1100 A
b1100 e
b1100 !#
b10000000010001000000011 J
b10000000010001000000011 j
b10000000010001000000011 ~"
b10100 {"
b10100 '#
b10100 ,#
b10000 z"
b10000 $#
b10000 )#
b10000 *#
1!
#50
0!
#55
b11111111111111111111111111111101 ?#
b11111111111111111111111111111101 S#
b11111111111111111111111111111101 \#
b11111111111111111111111111111101 B#
b11111111111111111111111111111101 R#
b11111111111111111111111111111101 C#
b11111111111111111111111111111101 M#
b11111111111111111111111111111101 Q#
b11111111111111111111111111111101 [#
b1 l
b1 1"
b10 b
b10 -"
b1000001000001100110011 |"
b1 *"
b100 G"
b100 a"
b100 e"
b11 P
b11 ^
b11 +"
b11 F"
b11 q"
b11 w"
b11 c#
b11 j#
b1000001000001100110011 }"
b1000001000001100110011 ##
b100000010001010000011 k
b100000010001010000011 0"
b100 E"
b100 ]"
b100 ^"
b100 g"
b11000 y"
b11000 &#
b11000 (#
b10100 <
b10100 d
b10100 "#
b10000 A
b10000 e
b10000 !#
b100000010001010000011 J
b100000010001010000011 j
b100000010001010000011 ~"
b100 .
b100 y
b100 /#
b100 7
b100 u
b100 9"
b10000 8
b10000 t
b10000 6"
b1100 @
b1100 s
b1100 5"
b1100 i"
b10000 ;
b10000 H"
b10000 k"
b10000 x"
b10000 %#
b100 M
b100 r
b100 4"
b100 f"
b100 j"
b10 Y"
b10 n"
b10 t"
b11 L
b11 T"
b11 6#
b1011 :
b1011 V"
b1011 8#
b11 T
b11 3"
b11 S"
b11 m"
b11 s"
b11 5#
b11 K#
b11 T#
b1100 ?
b1100 U"
b1100 7#
b11 6
b11 W"
b11 -#
b11 9#
14#
b1 3#
b10 5
b10 ]
b10 ,"
b10 0#
b10 H#
b10 K
b10 E#
b10 ^#
b10 f#
b1000 >
b1000 F#
b1000 _#
b1000 h#
b11 4
b11 I#
b11 a#
b11 e#
b10 Q
b10 D#
b10 ]#
b10 d#
b11000 {"
b11000 '#
b11000 ,#
b10100 z"
b10100 $#
b10100 )#
b10100 *#
1!
#60
0!
#65
b11111111111111111111111111111110 ?#
b11111111111111111111111111111110 S#
b11111111111111111111111111111110 \#
b11111111111111111111111111111110 B#
b11111111111111111111111111111110 R#
b11111111111111111111111111111110 C#
b11111111111111111111111111111110 M#
b11111111111111111111111111111110 Q#
b11111111111111111111111111111110 [#
b110 p
b110 ""
1a
b0 l
b0 1"
0n
b1 `
b1 &"
b100 o
b100 !"
b100 ("
b0 m
b0 '"
b0 /"
b10 c
b10 ."
b11 b
b11 -"
b1000000000100010000001110110011 |"
b11111111111111111111111111111101 P
b11111111111111111111111111111101 ^
b11111111111111111111111111111101 +"
b11111111111111111111111111111101 F"
b11111111111111111111111111111101 q"
b11111111111111111111111111111101 w"
b11111111111111111111111111111101 c#
b11111111111111111111111111111101 j#
b1 G"
b1 a"
b1 e"
b110011 $"
b0 #"
b0 |
1~
b1 )"
b10 *"
b1000000000100010000001110110011 }"
b1000000000100010000001110110011 ##
b10 B"
b10 h"
b10 v"
b1 E"
b1 ]"
b1 ^"
b1 g"
b1000001000001100110011 k
b1000001000001100110011 0"
b11100 y"
b11100 &#
b11100 (#
b11 5
b11 ]
b11 ,"
b11 0#
b11 H#
b11 K
b11 E#
b11 ^#
b11 f#
b1100 >
b1100 F#
b1100 _#
b1100 h#
b11111111111111111111111111111101 4
b11111111111111111111111111111101 I#
b11111111111111111111111111111101 a#
b11111111111111111111111111111101 e#
b11 Q
b11 D#
b11 ]#
b11 d#
b10 3#
b100 L
b100 T"
b100 6#
b10000 :
b10000 V"
b10000 8#
b100 T
b100 3"
b100 S"
b100 m"
b100 s"
b100 5#
b100 K#
b100 T#
b10000 ?
b10000 U"
b10000 7#
b100 6
b100 W"
b100 -#
b100 9#
b11 Y"
b11 n"
b11 t"
b1 .
b1 y
b1 /#
b101 7
b101 u
b101 9"
b10100 8
b10100 t
b10100 6"
b10000 @
b10000 s
b10000 5"
b10000 i"
b10 2
b10 w
b10 8"
b10 r"
b10001 ;
b10001 H"
b10001 k"
b10001 x"
b10001 %#
b1 M
b1 r
b1 4"
b1 f"
b1 j"
b11000 <
b11000 d
b11000 "#
b10100 A
b10100 e
b10100 !#
b1000001000001100110011 J
b1000001000001100110011 j
b1000001000001100110011 ~"
b11100 {"
b11100 '#
b11100 ,#
b11000 z"
b11000 $#
b11000 )#
b11000 *#
1!
#70
0!
#75
b10 ?#
b10 S#
b10 \#
b10 B#
b10 R#
b10 C#
b10 M#
b10 Q#
b10 [#
b1101 p
b1101 ""
b11 c
b11 ."
b10 b
b10 -"
b100010001010000110011 |"
1}
b10 )"
b1 *"
b101 G"
b101 a"
b10000 b"
b0 d"
b0 c"
b101 e"
b10 @#
b10 P#
b10 Y#
b11111111111111111111111111111110 P
b11111111111111111111111111111110 ^
b11111111111111111111111111111110 +"
b11111111111111111111111111111110 F"
b11111111111111111111111111111110 q"
b11111111111111111111111111111110 w"
b11111111111111111111111111111110 c#
b11111111111111111111111111111110 j#
b100010001010000110011 }"
b100010001010000110011 ##
b1000000000100010000001110110011 k
b1000000000100010000001110110011 0"
b11 B"
b11 h"
b11 v"
b10 C"
b10 _"
b10 `"
b10 p"
b11 E"
b11 ]"
b11 ^"
b11 g"
b10 A#
b10 L#
b10 O#
b10 U#
b100000 y"
b100000 &#
b100000 (#
b11100 <
b11100 d
b11100 "#
b11000 A
b11000 e
b11000 !#
b1000000000100010000001110110011 J
b1000000000100010000001110110011 j
b1000000000100010000001110110011 ~"
b10 .
b10 y
b10 /#
b1 /
b1 x
b1 .#
b110 7
b110 u
b110 9"
b1 ,
b1 z
b1 :"
0R
b11000 8
b11000 t
b11000 6"
b10100 @
b10100 s
b10100 5"
b10100 i"
b11 2
b11 w
b11 8"
b11 r"
b10 3
b10 v
b10 7"
b10 l"
b10100 ;
b10100 H"
b10100 k"
b10100 x"
b10100 %#
b0 M
b0 r
b0 4"
b0 f"
b0 j"
b11111111111111111111111111111101 Y"
b11111111111111111111111111111101 n"
b11111111111111111111111111111101 t"
b1 L
b1 T"
b1 6#
b10001 :
b10001 V"
b10001 8#
b1 T
b1 3"
b1 S"
b1 m"
b1 s"
b1 5#
b1 K#
b1 T#
b10 '
b10 ["
b10 <#
b10 N#
b10 X#
b10100 ?
b10100 U"
b10100 7#
b101 6
b101 W"
b101 -#
b101 9#
b11 3#
b100 5
b100 ]
b100 ,"
b100 0#
b100 H#
b100 K
b100 E#
b100 ^#
b100 f#
b10000 >
b10000 F#
b10000 _#
b10000 h#
b11111111111111111111111111111110 4
b11111111111111111111111111111110 I#
b11111111111111111111111111111110 a#
b11111111111111111111111111111110 e#
b100 Q
b100 D#
b100 ]#
b100 d#
b100000 {"
b100000 '#
b100000 ,#
b11100 z"
b11100 $#
b11100 )#
b11100 *#
1!
#80
0!
